[{
  "ime": "Marko",
  "prezime": "Markovic",
  "mjesto": "Beograd",
  "godiste": 1988,
  "visina": 187,
  "prosjek": 8.72,
  "student" : {
    "ime": "Mihajlo1",
    "prezime": "Jezdic1",
    "mjesto": "Novi Sad",
    "godiste": 1968,
    "visina": 190,
    "prosjek": 6.52
  }
},
  {
    "ime": "Mihajlo",
    "prezime": "Jezdic",
    "mjesto": "Novi Sad",
    "godiste": 1968,
    "visina": 190,
    "prosjek": 6.52,
    "student" : {
      "ime": "Petar1",
      "prezime": "Petrovic1",
      "mjesto": "Sombor",
      "godiste": 1992,
      "visina": 207,
      "prosjek": 9.72
    }
  }, {
  "ime": "Petar",
  "prezime": "Petrovic",
  "mjesto": "Sombor",
  "godiste": 1992,
  "visina": 207,
  "prosjek": 9.72,
  "student" : {
    "ime": "Marko1",
    "prezime": "Markovic1",
    "mjesto": "Beograd",
    "godiste": 1988,
    "visina": 187,
    "prosjek": 8.72
  }
}]